{
    "bitbucket-oauth": {
        "bitbucket.org": {
            "consumer-key": "YAUCbPTFrdXJckNgVQ",
            "consumer-secret": "hnaqwHD5SqXDHrZBUDW835DyGUukKdBT",
            "access-token": "oo3JY1USJTGSsYZ_lWVSs1nMQpOh683Ppk8XDTwOKE1oHHxwBERGmUnhu-eG6_XV5Qc4Ejhe3EZtmQsbEZkevU_wHkfYST2qDu-zojDchcNcXJ57-RAR829MStEW49X081zsQ-TAlTv_w2jiAnrv",
            "access-token-expiration": 1630084770
        }
    }
}
