<svg xmlns="http://www.w3.org/2000/svg" xmlns:xlink="http://www.w3.org/1999/xlink" style="margin:auto;display:block;" width="241px" height="241px" viewBox="0 0 100 100" preserveAspectRatio="xMidYMid">
    <rect x="20" y="20" width="60" height="60" stroke="#f6f8ef" stroke-width="10" fill="none"></rect>
    <rect x="20" y="20" width="60" height="60" stroke="#a1a1a1" stroke-width="10" stroke-lincap="undefined" fill="none">
        <animate attributeName="stroke-dasharray" repeatCount="indefinite" dur="1s" keyTimes="0;0.5;1" values="24 216;120 120;24 216"></animate>
        <animate attributeName="stroke-dashoffset" repeatCount="indefinite" dur="1s" keyTimes="0;0.5;1" values="0;-120;-240"></animate>
    </rect>
</svg>
